3D-graphics-rendering-FPGA-main/3D-graphics-rendering-FPGA-main/Verilog Implementation/Verilog Implementation/cosine.vcd
$date
	Fri Mar 11 06:24:52 2022
$end
$version
	Icarus Verilog
$end
$timescale
	1ns
$end
$scope module cosine_tb $end
$var wire 16 ! value [15:0] $end
$var reg 16 " theta [15:0] $end
$scope module c1 $end
$var wire 16 # data_val [15:0] $end
$var wire 16 $ inp_angle [15:0] $end
$var reg 16 % theta [15:0] $end
$var reg 16 & val [15:0] $end
$var integer 32 ' addr_id [31:0] $end
$upscope $end
$upscope $end
$enddefinitions $end
#0
$dumpvars
b0 '
b11111111 &
b0 %
b0 $
b11111111 #
b0 "
b11111111 !
$end
#20
b11011101 !
b11011101 #
b11011101 &
b10101 '
b11110 %
b11110 "
b11110 $
#30
b0 !
b0 #
b0 &
b111111 '
b1011010 %
b1011010 "
b1011010 $
#40
b11111111 !
b11111111 #
b11111111 &
b0 '
b0 %
b0 "
b0 $
#50
b1111111100100011 !
b1111111100100011 #
b1111111100100011 &
b10101 '
b10010110 %
b10010110 "
b10010110 $
#60
b1111111100000001 !
b1111111100000001 #
b1111111100000001 &
b0 '
b10110100 %
b10110100 "
b10110100 $
#70
b1111111100010000 !
b1111111100010000 #
b1111111100010000 &
b1110 '
b11001000 %
b11001000 "
b11001000 $
#80
b0 !
b0 #
b0 &
b111111 '
b100001110 %
b100001110 "
b100001110 $
#90
b1111111 !
b1111111 #
b1111111 &
b101010 '
b100101100 %
b100101100 "
b100101100 $
#100
b11111111 !
b11111111 #
b11111111 &
b0 '
b0 %
b101101000 "
b101101000 $
#150
b11011101 !
b11011101 #
b11011101 &
b10101 '
b11110 %
b110000110 "
b110000110 $
#200
b1111111001111010 %
b1111111111100010 "
b1111111111100010 $
