558_resources/Verilog Implementation/simulation/modelsim/msim_transcript
# Reading C:/intelFPGA_lite/18.1/modelsim_ase/tcl/vsim/pref.tcl
# do EE705project_run_msim_rtl_verilog.do
# if {[file exists rtl_work]} {
# 	vdel -lib rtl_work -all
# }
# vlib rtl_work
# vmap work rtl_work
# Model Technology ModelSim - Intel FPGA Edition vmap 10.5b Lib Mapping Utility 2016.10 Oct  5 2016
# vmap work rtl_work 
# Copying C:/intelFPGA_lite/18.1/modelsim_ase/win32aloem/../modelsim.ini to modelsim.ini
# Modifying modelsim.ini
# 
# vlog -vlog01compat -work work +incdir+C:/Data/QuartusPrimeWorkingDirectory/render3D {C:/Data/QuartusPrimeWorkingDirectory/render3D/sine.v}
# Model Technology ModelSim - Intel FPGA Edition vlog 10.5b Compiler 2016.10 Oct  5 2016
# Start time: 17:12:37 on Jun 16,2022
# vlog -reportprogress 300 -vlog01compat -work work "+incdir+C:/Data/QuartusPrimeWorkingDirectory/render3D" C:/Data/QuartusPrimeWorkingDirectory/render3D/sine.v 
# -- Compiling module sine
# 
# Top level modules:
# 	sine
# End time: 17:12:37 on Jun 16,2022, Elapsed time: 0:00:00
# Errors: 0, Warnings: 0
# vlog -vlog01compat -work work +incdir+C:/Data/QuartusPrimeWorkingDirectory/render3D {C:/Data/QuartusPrimeWorkingDirectory/render3D/cosine.v}
# Model Technology ModelSim - Intel FPGA Edition vlog 10.5b Compiler 2016.10 Oct  5 2016
# Start time: 17:12:37 on Jun 16,2022
# vlog -reportprogress 300 -vlog01compat -work work "+incdir+C:/Data/QuartusPrimeWorkingDirectory/render3D" C:/Data/QuartusPrimeWorkingDirectory/render3D/cosine.v 
# -- Compiling module cosine
# 
# Top level modules:
# 	cosine
# End time: 17:12:37 on Jun 16,2022, Elapsed time: 0:00:00
# Errors: 0, Warnings: 0
# vlog -vlog01compat -work work +incdir+C:/Data/QuartusPrimeWorkingDirectory/render3D {C:/Data/QuartusPrimeWorkingDirectory/render3D/main.v}
# Model Technology ModelSim - Intel FPGA Edition vlog 10.5b Compiler 2016.10 Oct  5 2016
# Start time: 17:12:37 on Jun 16,2022
# vlog -reportprogress 300 -vlog01compat -work work "+incdir+C:/Data/QuartusPrimeWorkingDirectory/render3D" C:/Data/QuartusPrimeWorkingDirectory/render3D/main.v 
# -- Compiling module main
# ** Warning: C:/Data/QuartusPrimeWorkingDirectory/render3D/main.v(25): (vlog-2608) Keyword "unsigned" not allowed here in Verilog 2001.
# ** Warning: C:/Data/QuartusPrimeWorkingDirectory/render3D/main.v(29): (vlog-2608) Keyword "unsigned" not allowed here in Verilog 2001.
# 
# Top level modules:
# 	main
# End time: 17:12:37 on Jun 16,2022, Elapsed time: 0:00:00
# Errors: 0, Warnings: 2
# 
# vlog -vlog01compat -work work +incdir+C:/Data/QuartusPrimeWorkingDirectory/render3D {C:/Data/QuartusPrimeWorkingDirectory/render3D/test_main.v}
# Model Technology ModelSim - Intel FPGA Edition vlog 10.5b Compiler 2016.10 Oct  5 2016
# Start time: 17:12:37 on Jun 16,2022
# vlog -reportprogress 300 -vlog01compat -work work "+incdir+C:/Data/QuartusPrimeWorkingDirectory/render3D" C:/Data/QuartusPrimeWorkingDirectory/render3D/test_main.v 
# -- Compiling module test_main
# 
# Top level modules:
# 	test_main
# End time: 17:12:37 on Jun 16,2022, Elapsed time: 0:00:00
# Errors: 0, Warnings: 0
# 
# vsim -t 1ps -L altera_ver -L lpm_ver -L sgate_ver -L altera_mf_ver -L altera_lnsim_ver -L cycloneive_ver -L rtl_work -L work -voptargs="+acc"  test_main
# vsim -t 1ps -L altera_ver -L lpm_ver -L sgate_ver -L altera_mf_ver -L altera_lnsim_ver -L cycloneive_ver -L rtl_work -L work -voptargs=""+acc"" test_main 
# Start time: 17:12:37 on Jun 16,2022
# Loading work.test_main
# Loading work.main
# Loading work.sine
# Loading work.cosine
# 
# add wave *
# ** Warning: (vsim-WLF-5000) WLF file currently in use: vsim.wlf
#           File in use by: surbh  Hostname: SURBHIKATB  ProcessID: 21684
#           Attempting to use alternate WLF file "./wlft52crh5".
# ** Warning: (vsim-WLF-5001) Could not open WLF file: vsim.wlf
#           Using alternate file: ./wlft52crh5
# view structure
# .main_pane.structure.interior.cs.body.struct
# view signals
# .main_pane.objects.interior.cs.body.tree
# run -all
# val :     X
# val :     X
# val :     X
# val :   100
# val :   100
# val :   100
#    200    200    100    100
#   1000   1000    100    100
#    200    200    100    100
#    500    500    100    100
#   1800   1800    100    100
#   1400   1400    100    100
#    200    200    100    100
#   1000   1000    100    100
#    200    200    100    100
#    500    500    100    100
#   1800   1800    100    100
#   1400   1400    100    100
#    700    700    100    100
#   1500   1500    100    100
#    700    700    100    100
#   1000   1000    100    100
#   2300   2300    100    100
#   1900   1900    100    100
# val :   100
# val :    86
#    700    700    100    100
#   1500   1500    100    100
#    700    700    100    100
#   1000   1000    100    100
#   2300   2300    100    100
#   1900   1900    100    100
# val :    86
# val :   100
#    700    700    100    100
#   1500   1500    100    100
#    700    700    100    100
#   1000   1000    100    100
#   2300   2300    100    100
#   1900   1900    100    100
# val :   100
# val :    49
#    343    700     49    100
#    735   1500     49    100
#    343    700     49    100
#    490   1000     49    100
#   1127   2300     49    100
#    931   1900     49    100
# val :    49
# val :   100
#    478    478    100    100
#    870    870    100    100
#    894    894    100    100
#    604    604    100    100
#   1240   1240    100    100
#   1191   1191    100    100
#      0    478    100      0
#      0    870    100      0
#      0    894    100      0
#      0    604    100      0
#      0   1240    100      0
#      0   1191    100      0
# val :     0
# val :   100
# All combinations checked!
#    479    479    100    100
#    479    479    100    100
#   1339   1339    100    100
#     37     37    100    100
#     38     38    100    100
#    737    737    100    100
#    479    479    100    100
#    479    479    100    100
#   1339   1339    100    100
#     37     37    100    100
#     38     38    100    100
#    737    737    100    100
#    479    479    100    100
#    479    479    100    100
#   1339   1339    100    100
#     37     37    100    100
#     38     38    100    100
#    737    737    100    100
#    479    479    100    100
#    479    479    100    100
#   1339   1339    100    100
#     37     37    100    100
#     38     38    100    100
#    737    737    100    100
#    479    479    100    100
#    479    479    100    100
#   1339   1339    100    100
#     37     37    100    100
#     38     38    100    100
#    737    737    100    100
#    479    479    100    100
#    479    479    100    100
#   1339   1339    100    100
#     37     37    100    100
#     38     38    100    100
#    737    737    100    100
#    479    479    100    100
#    479    479    100    100
#   1339   1339    100    100
#     37     37    100    100
#     38     38    100    100
#    737    737    100    100
#    479    479    100    100
#    479    479    100    100
#   1339   1339    100    100
#     37     37    100    100
#     38     38    100    100
#    737    737    100    100
#    479    479    100    100
#    479    479    100    100
#   1339   1339    100    100
#     37     37    100    100
#     38     38    100    100
#    737    737    100    100
#    479    479    100    100
#    479    479    100    100
#   1339   1339    100    100
#     37     37    100    100
#     38     38    100    100
#    737    737    100    100
#    479    479    100    100
#    479    479    100    100
#   1339   1339    100    100
#     37     37    100    100
#     38     38    100    100
#    737    737    100    100
#    479    479    100    100
#    479    479    100    100
#   1339   1339    100    100
#     37     37    100    100
#     38     38    100    100
#    737    737    100    100
#    479    479    100    100
#    479    479    100    100
#   1339   1339    100    100
#     37     37    100    100
#     38     38    100    100
#    737    737    100    100
#    479    479    100    100
#    479    479    100    100
#   1339   1339    100    100
#     37     37    100    100
#     38     38    100    100
#    737    737    100    100
#    479    479    100    100
#    479    479    100    100
#   1339   1339    100    100
#     37     37    100    100
#     38     38    100    100
#    737    737    100    100
#    479    479    100    100
#    479    479    100    100
#   1339   1339    100    100
#     37     37    100    100
#     38     38    100    100
#    737    737    100    100
#    479    479    100    100
#    479    479    100    100
#   1339   1339    100    100
#     37     37    100    100
#     38     38    100    100
#    737    737    100    100
#    479    479    100    100
#    479    479    100    100
#   1339   1339    100    100
#     37     37    100    100
#     38     38    100    100
#    737    737    100    100
#    479    479    100    100
#    479    479    100    100
#   1339   1339    100    100
#     37     37    100    100
#     38     38    100    100
#    737    737    100    100
#    479    479    100    100
#    479    479    100    100
#   1339   1339    100    100
#     37     37    100    100
#     38     38    100    100
#    737    737    100    100
#    479    479    100    100
#    479    479    100    100
#   1339   1339    100    100
#     37     37    100    100
#     38     38    100    100
#    737    737    100    100
#    479    479    100    100
#    479    479    100    100
#   1339   1339    100    100
#     37     37    100    100
#     38     38    100    100
#    737    737    100    100
#    479    479    100    100
#    479    479    100    100
#   1339   1339    100    100
#     37     37    100    100
#     38     38    100    100
#    737    737    100    100
#    479    479    100    100
#    479    479    100    100
#   1339   1339    100    100
#     37     37    100    100
#     38     38    100    100
#    737    737    100    100
#    479    479    100    100
#    479    479    100    100
#   1339   1339    100    100
#     37     37    100    100
#     38     38    100    100
#    737    737    100    100
#    479    479    100    100
#    479    479    100    100
#   1339   1339    100    100
#     37     37    100    100
#     38     38    100    100
#    737    737    100    100
#    479    479    100    100
#    479    479    100    100
#   1339   1339    100    100
#     37     37    100    100
#     38     38    100    100
#    737    737    100    100
#    479    479    100    100
#    479    479    100    100
#   1339   1339    100    100
#     37     37    100    100
#     38     38    100    100
#    737    737    100    100
#    479    479    100    100
#    479    479    100    100
#   1339   1339    100    100
#     37     37    100    100
#     38     38    100    100
#    737    737    100    100
#    479    479    100    100
#    479    479    100    100
#   1339   1339    100    100
#     37     37    100    100
#     38     38    100    100
#    737    737    100    100
#    479    479    100    100
#    479    479    100    100
#   1339   1339    100    100
#     37     37    100    100
#     38     38    100    100
#    737    737    100    100
#    479    479    100    100
#    479    479    100    100
#   1339   1339    100    100
#     37     37    100    100
#     38     38    100    100
#    737    737    100    100
#    479    479    100    100
#    479    479    100    100
#   1339   1339    100    100
#     37     37    100    100
#     38     38    100    100
#    737    737    100    100
#    479    479    100    100
#    479    479    100    100
#   1339   1339    100    100
#     37     37    100    100
#     38     38    100    100
#    737    737    100    100
#    479    479    100    100
#    479    479    100    100
#   1339   1339    100    100
#     37     37    100    100
#     38     38    100    100
#    737    737    100    100
#    479    479    100    100
#    479    479    100    100
#   1339   1339    100    100
#     37     37    100    100
#     38     38    100    100
#    737    737    100    100
#    479    479    100    100
#    479    479    100    100
#   1339   1339    100    100
#     37     37    100    100
#     38     38    100    100
#    737    737    100    100
#    479    479    100    100
#    479    479    100    100
#   1339   1339    100    100
#     37     37    100    100
#     38     38    100    100
#    737    737    100    100
#    479    479    100    100
#    479    479    100    100
#   1339   1339    100    100
#     37     37    100    100
#     38     38    100    100
#    737    737    100    100
#    479    479    100    100
#    479    479    100    100
#   1339   1339    100    100
#     37     37    100    100
#     38     38    100    100
#    737    737    100    100
#    479    479    100    100
#    479    479    100    100
#   1339   1339    100    100
#     37     37    100    100
#     38     38    100    100
#    737    737    100    100
#    479    479    100    100
#    479    479    100    100
#   1339   1339    100    100
#     37     37    100    100
#     38     38    100    100
#    737    737    100    100
#    479    479    100    100
#    479    479    100    100
#   1339   1339    100    100
#     37     37    100    100
#     38     38    100    100
#    737    737    100    100
#    479    479    100    100
#    479    479    100    100
#   1339   1339    100    100
#     37     37    100    100
#     38     38    100    100
#    737    737    100    100
#    479    479    100    100
#    479    479    100    100
#   1339   1339    100    100
#     37     37    100    100
#     38     38    100    100
#    737    737    100    100
#    479    479    100    100
#    479    479    100    100
#   1339   1339    100    100
#     37     37    100    100
#     38     38    100    100
#    737    737    100    100
#    479    479    100    100
#    479    479    100    100
#   1339   1339    100    100
#     37     37    100    100
#     38     38    100    100
#    737    737    100    100
#    479    479    100    100
#    479    479    100    100
#   1339   1339    100    100
#     37     37    100    100
#     38     38    100    100
#    737    737    100    100
#    479    479    100    100
#    479    479    100    100
#   1339   1339    100    100
#     37     37    100    100
#     38     38    100    100
#    737    737    100    100
#    479    479    100    100
#    479    479    100    100
#   1339   1339    100    100
#     37     37    100    100
#     38     38    100    100
#    737    737    100    100
#    479    479    100    100
#    479    479    100    100
#   1339   1339    100    100
#     37     37    100    100
#     38     38    100    100
#    737    737    100    100
#    479    479    100    100
#    479    479    100    100
#   1339   1339    100    100
#     37     37    100    100
#     38     38    100    100
#    737    737    100    100
#    479    479    100    100
#    479    479    100    100
#   1339   1339    100    100
#     37     37    100    100
#     38     38    100    100
#    737    737    100    100
#    479    479    100    100
#    479    479    100    100
#   1339   1339    100    100
#     37     37    100    100
#     38     38    100    100
#    737    737    100    100
#    479    479    100    100
#    479    479    100    100
#   1339   1339    100    100
#     37     37    100    100
#     38     38    100    100
#    737    737    100    100
#    479    479    100    100
#    479    479    100    100
#   1339   1339    100    100
#     37     37    100    100
#     38     38    100    100
#    737    737    100    100
#    479    479    100    100
#    479    479    100    100
#   1339   1339    100    100
#     37     37    100    100
#     38     38    100    100
#    737    737    100    100
#    479    479    100    100
#    479    479    100    100
#   1339   1339    100    100
#     37     37    100    100
#     38     38    100    100
#    737    737    100    100
#    479    479    100    100
#    479    479    100    100
#   1339   1339    100    100
#     37     37    100    100
#     38     38    100    100
#    737    737    100    100
#    479    479    100    100
#    479    479    100    100
#   1339   1339    100    100
#     37     37    100    100
#     38     38    100    100
#    737    737    100    100
#    479    479    100    100
#    479    479    100    100
#   1339   1339    100    100
#     37     37    100    100
#     38     38    100    100
#    737    737    100    100
#    479    479    100    100
#    479    479    100    100
#   1339   1339    100    100
#     37     37    100    100
#     38     38    100    100
#    737    737    100    100
#    479    479    100    100
#    479    479    100    100
#   1339   1339    100    100
#     37     37    100    100
#     38     38    100    100
#    737    737    100    100
#    479    479    100    100
#    479    479    100    100
#   1339   1339    100    100
#     37     37    100    100
#     38     38    100    100
#    737    737    100    100
#    479    479    100    100
#    479    479    100    100
#   1339   1339    100    100
#     37     37    100    100
#     38     38    100    100
#    737    737    100    100
#    479    479    100    100
#    479    479    100    100
#   1339   1339    100    100
#     37     37    100    100
#     38     38    100    100
#    737    737    100    100
#    479    479    100    100
#    479    479    100    100
#   1339   1339    100    100
#     37     37    100    100
#     38     38    100    100
#    737    737    100    100
#    479    479    100    100
#    479    479    100    100
#   1339   1339    100    100
#     37     37    100    100
#     38     38    100    100
#    737    737    100    100
#    479    479    100    100
#    479    479    100    100
#   1339   1339    100    100
#     37     37    100    100
#     38     38    100    100
#    737    737    100    100
#    479    479    100    100
#    479    479    100    100
#   1339   1339    100    100
#     37     37    100    100
#     38     38    100    100
#    737    737    100    100
#    479    479    100    100
#    479    479    100    100
#   1339   1339    100    100
#     37     37    100    100
#     38     38    100    100
#    737    737    100    100
#    479    479    100    100
#    479    479    100    100
#   1339   1339    100    100
#     37     37    100    100
#     38     38    100    100
#    737    737    100    100
#    479    479    100    100
#    479    479    100    100
#   1339   1339    100    100
#     37     37    100    100
#     38     38    100    100
#    737    737    100    100
#    479    479    100    100
#    479    479    100    100
#   1339   1339    100    100
#     37     37    100    100
#     38     38    100    100
#    737    737    100    100
#    479    479    100    100
#    479    479    100    100
#   1339   1339    100    100
#     37     37    100    100
#     38     38    100    100
#    737    737    100    100
#    479    479    100    100
#    479    479    100    100
#   1339   1339    100    100
#     37     37    100    100
#     38     38    100    100
#    737    737    100    100
#    479    479    100    100
#    479    479    100    100
#   1339   1339    100    100
#     37     37    100    100
#     38     38    100    100
#    737    737    100    100
#    479    479    100    100
#    479    479    100    100
#   1339   1339    100    100
#     37     37    100    100
#     38     38    100    100
#    737    737    100    100
#    479    479    100    100
#    479    479    100    100
#   1339   1339    100    100
#     37     37    100    100
#     38     38    100    100
#    737    737    100    100
#    479    479    100    100
#    479    479    100    100
#   1339   1339    100    100
#     37     37    100    100
#     38     38    100    100
#    737    737    100    100
#    479    479    100    100
#    479    479    100    100
#   1339   1339    100    100
#     37     37    100    100
#     38     38    100    100
#    737    737    100    100
#    479    479    100    100
#    479    479    100    100
#   1339   1339    100    100
#     37     37    100    100
#     38     38    100    100
#    737    737    100    100
#    479    479    100    100
#    479    479    100    100
#   1339   1339    100    100
#     37     37    100    100
#     38     38    100    100
#    737    737    100    100
#    479    479    100    100
#    479    479    100    100
#   1339   1339    100    100
#     37     37    100    100
#     38     38    100    100
#    737    737    100    100
#    479    479    100    100
#    479    479    100    100
#   1339   1339    100    100
#     37     37    100    100
#     38     38    100    100
#    737    737    100    100
#    479    479    100    100
#    479    479    100    100
#   1339   1339    100    100
#     37     37    100    100
#     38     38    100    100
#    737    737    100    100
#    479    479    100    100
#    479    479    100    100
#   1339   1339    100    100
#     37     37    100    100
#     38     38    100    100
#    737    737    100    100
#    479    479    100    100
#    479    479    100    100
#   1339   1339    100    100
#     37     37    100    100
#     38     38    100    100
#    737    737    100    100
#    479    479    100    100
#    479    479    100    100
#   1339   1339    100    100
#     37     37    100    100
#     38     38    100    100
#    737    737    100    100
#    479    479    100    100
#    479    479    100    100
#   1339   1339    100    100
#     37     37    100    100
#     38     38    100    100
#    737    737    100    100
#    479    479    100    100
#    479    479    100    100
#   1339   1339    100    100
#     37     37    100    100
#     38     38    100    100
#    737    737    100    100
#    479    479    100    100
#    479    479    100    100
#   1339   1339    100    100
#     37     37    100    100
#     38     38    100    100
#    737    737    100    100
#    479    479    100    100
#    479    479    100    100
#   1339   1339    100    100
#     37     37    100    100
#     38     38    100    100
#    737    737    100    100
#    479    479    100    100
#    479    479    100    100
#   1339   1339    100    100
#     37     37    100    100
#     38     38    100    100
#    737    737    100    100
#    479    479    100    100
#    479    479    100    100
#   1339   1339    100    100
#     37     37    100    100
#     38     38    100    100
#    737    737    100    100
#    479    479    100    100
#    479    479    100    100
#   1339   1339    100    100
#     37     37    100    100
#     38     38    100    100
#    737    737    100    100
#    479    479    100    100
#    479    479    100    100
#   1339   1339    100    100
#     37     37    100    100
#     38     38    100    100
#    737    737    100    100
#    479    479    100    100
#    479    479    100    100
#   1339   1339    100    100
#     37     37    100    100
#     38     38    100    100
#    737    737    100    100
#    479    479    100    100
#    479    479    100    100
#   1339   1339    100    100
#     37     37    100    100
#     38     38    100    100
#    737    737    100    100
#    479    479    100    100
#    479    479    100    100
#   1339   1339    100    100
#     37     37    100    100
#     38     38    100    100
#    737    737    100    100
#    479    479    100    100
#    479    479    100    100
#   1339   1339    100    100
#     37     37    100    100
#     38     38    100    100
#    737    737    100    100
#    479    479    100    100
#    479    479    100    100
#   1339   1339    100    100
#     37     37    100    100
#     38     38    100    100
#    737    737    100    100
#    479    479    100    100
#    479    479    100    100
#   1339   1339    100    100
#     37     37    100    100
#     38     38    100    100
#    737    737    100    100
#    479    479    100    100
#    479    479    100    100
#   1339   1339    100    100
#     37     37    100    100
#     38     38    100    100
#    737    737    100    100
#    479    479    100    100
#    479    479    100    100
#   1339   1339    100    100
#     37     37    100    100
#     38     38    100    100
#    737    737    100    100
#    479    479    100    100
#    479    479    100    100
#   1339   1339    100    100
#     37     37    100    100
#     38     38    100    100
#    737    737    100    100
#    479    479    100    100
#    479    479    100    100
#   1339   1339    100    100
#     37     37    100    100
#     38     38    100    100
#    737    737    100    100
#    479    479    100    100
#    479    479    100    100
#   1339   1339    100    100
#     37     37    100    100
#     38     38    100    100
#    737    737    100    100
#    479    479    100    100
#    479    479    100    100
#   1339   1339    100    100
#     37     37    100    100
#     38     38    100    100
#    737    737    100    100
#    479    479    100    100
#    479    479    100    100
#   1339   1339    100    100
#     37     37    100    100
#     38     38    100    100
#    737    737    100    100
#    479    479    100    100
#    479    479    100    100
#   1339   1339    100    100
#     37     37    100    100
#     38     38    100    100
#    737    737    100    100
#    479    479    100    100
#    479    479    100    100
#   1339   1339    100    100
#     37     37    100    100
#     38     38    100    100
#    737    737    100    100
#    479    479    100    100
#    479    479    100    100
#   1339   1339    100    100
#     37     37    100    100
#     38     38    100    100
#    737    737    100    100
#    479    479    100    100
#    479    479    100    100
#   1339   1339    100    100
#     37     37    100    100
#     38     38    100    100
#    737    737    100    100
#    479    479    100    100
#    479    479    100    100
#   1339   1339    100    100
#     37     37    100    100
#     38     38    100    100
#    737    737    100    100
#    479    479    100    100
#    479    479    100    100
#   1339   1339    100    100
#     37     37    100    100
#     38     38    100    100
#    737    737    100    100
#    479    479    100    100
#    479    479    100    100
#   1339   1339    100    100
#     37     37    100    100
#     38     38    100    100
#    737    737    100    100
#    479    479    100    100
#    479    479    100    100
#   1339   1339    100    100
#     37     37    100    100
#     38     38    100    100
#    737    737    100    100
#    479    479    100    100
#    479    479    100    100
#   1339   1339    100    100
#     37     37    100    100
#     38     38    100    100
#    737    737    100    100
#    479    479    100    100
#    479    479    100    100
#   1339   1339    100    100
#     37     37    100    100
#     38     38    100    100
#    737    737    100    100
#    479    479    100    100
#    479    479    100    100
#   1339   1339    100    100
#     37     37    100    100
#     38     38    100    100
#    737    737    100    100
#    479    479    100    100
#    479    479    100    100
#   1339   1339    100    100
#     37     37    100    100
#     38     38    100    100
#    737    737    100    100
#    479    479    100    100
#    479    479    100    100
#   1339   1339    100    100
#     37     37    100    100
#     38     38    100    100
#    737    737    100    100
#    479    479    100    100
#    479    479    100    100
#   1339   1339    100    100
#     37     37    100    100
#     38     38    100    100
#    737    737    100    100
#    479    479    100    100
#    479    479    100    100
#   1339   1339    100    100
#     37     37    100    100
#     38     38    100    100
#    737    737    100    100
#    479    479    100    100
#    479    479    100    100
#   1339   1339    100    100
#     37     37    100    100
#     38     38    100    100
#    737    737    100    100
#    479    479    100    100
#    479    479    100    100
#   1339   1339    100    100
#     37     37    100    100
#     38     38    100    100
#    737    737    100    100
#    479    479    100    100
#    479    479    100    100
#   1339   1339    100    100
#     37     37    100    100
#     38     38    100    100
#    737    737    100    100
#    479    479    100    100
#    479    479    100    100
#   1339   1339    100    100
#     37     37    100    100
#     38     38    100    100
#    737    737    100    100
#    479    479    100    100
#    479    479    100    100
#   1339   1339    100    100
#     37     37    100    100
#     38     38    100    100
#    737    737    100    100
#    479    479    100    100
#    479    479    100    100
#   1339   1339    100    100
#     37     37    100    100
#     38     38    100    100
#    737    737    100    100
#    479    479    100    100
#    479    479    100    100
#   1339   1339    100    100
#     37     37    100    100
#     38     38    100    100
#    737    737    100    100
#    479    479    100    100
#    479    479    100    100
#   1339   1339    100    100
#     37     37    100    100
#     38     38    100    100
#    737    737    100    100
#    479    479    100    100
#    479    479    100    100
#   1339   1339    100    100
#     37     37    100    100
#     38     38    100    100
#    737    737    100    100
#    479    479    100    100
#    479    479    100    100
#   1339   1339    100    100
#     37     37    100    100
#     38     38    100    100
#    737    737    100    100
#    479    479    100    100
#    479    479    100    100
#   1339   1339    100    100
#     37     37    100    100
#     38     38    100    100
#    737    737    100    100
#    479    479    100    100
#    479    479    100    100
#   1339   1339    100    100
#     37     37    100    100
#     38     38    100    100
#    737    737    100    100
#    479    479    100    100
#    479    479    100    100
#   1339   1339    100    100
#     37     37    100    100
#     38     38    100    100
#    737    737    100    100
#    479    479    100    100
#    479    479    100    100
#   1339   1339    100    100
#     37     37    100    100
#     38     38    100    100
#    737    737    100    100
#    479    479    100    100
#    479    479    100    100
#   1339   1339    100    100
#     37     37    100    100
#     38     38    100    100
#    737    737    100    100
#    479    479    100    100
#    479    479    100    100
#   1339   1339    100    100
#     37     37    100    100
#     38     38    100    100
#    737    737    100    100
#    479    479    100    100
#    479    479    100    100
#   1339   1339    100    100
#     37     37    100    100
#     38     38    100    100
#    737    737    100    100
#    479    479    100    100
#    479    479    100    100
#   1339   1339    100    100
#     37     37    100    100
#     38     38    100    100
#    737    737    100    100
#    479    479    100    100
#    479    479    100    100
#   1339   1339    100    100
#     37     37    100    100
#     38     38    100    100
#    737    737    100    100
#    479    479    100    100
#    479    479    100    100
#   1339   1339    100    100
#     37     37    100    100
#     38     38    100    100
#    737    737    100    100
#    479    479    100    100
#    479    479    100    100
#   1339   1339    100    100
#     37     37    100    100
#     38     38    100    100
#    737    737    100    100
#    479    479    100    100
#    479    479    100    100
#   1339   1339    100    100
#     37     37    100    100
#     38     38    100    100
#    737    737    100    100
#    479    479    100    100
#    479    479    100    100
#   1339   1339    100    100
#     37     37    100    100
#     38     38    100    100
#    737    737    100    100
#    479    479    100    100
#    479    479    100    100
#   1339   1339    100    100
#     37     37    100    100
#     38     38    100    100
#    737    737    100    100
#    479    479    100    100
#    479    479    100    100
#   1339   1339    100    100
#     37     37    100    100
#     38     38    100    100
#    737    737    100    100
#    479    479    100    100
#    479    479    100    100
#   1339   1339    100    100
#     37     37    100    100
#     38     38    100    100
#    737    737    100    100
#    479    479    100    100
#    479    479    100    100
#   1339   1339    100    100
#     37     37    100    100
#     38     38    100    100
#    737    737    100    100
#    479    479    100    100
#    479    479    100    100
#   1339   1339    100    100
#     37     37    100    100
#     38     38    100    100
#    737    737    100    100
#    479    479    100    100
#    479    479    100    100
#   1339   1339    100    100
#     37     37    100    100
#     38     38    100    100
#    737    737    100    100
#    479    479    100    100
#    479    479    100    100
#   1339   1339    100    100
#     37     37    100    100
#     38     38    100    100
#    737    737    100    100
#    479    479    100    100
#    479    479    100    100
#   1339   1339    100    100
#     37     37    100    100
#     38     38    100    100
#    737    737    100    100
#    479    479    100    100
#    479    479    100    100
#   1339   1339    100    100
#     37     37    100    100
#     38     38    100    100
#    737    737    100    100
#    479    479    100    100
#    479    479    100    100
#   1339   1339    100    100
#     37     37    100    100
#     38     38    100    100
#    737    737    100    100
#    479    479    100    100
#    479    479    100    100
#   1339   1339    100    100
#     37     37    100    100
#     38     38    100    100
#    737    737    100    100
#    479    479    100    100
#    479    479    100    100
#   1339   1339    100    100
#     37     37    100    100
#     38     38    100    100
#    737    737    100    100
#    479    479    100    100
#    479    479    100    100
#   1339   1339    100    100
#     37     37    100    100
#     38     38    100    100
#    737    737    100    100
#    479    479    100    100
#    479    479    100    100
#   1339   1339    100    100
#     37     37    100    100
#     38     38    100    100
#    737    737    100    100
#    479    479    100    100
#    479    479    100    100
#   1339   1339    100    100
#     37     37    100    100
#     38     38    100    100
#    737    737    100    100
#    479    479    100    100
#    479    479    100    100
#   1339   1339    100    100
#     37     37    100    100
#     38     38    100    100
#    737    737    100    100
#    479    479    100    100
#    479    479    100    100
#   1339   1339    100    100
#     37     37    100    100
#     38     38    100    100
#    737    737    100    100
#    479    479    100    100
#    479    479    100    100
#   1339   1339    100    100
#     37     37    100    100
#     38     38    100    100
#    737    737    100    100
#    479    479    100    100
#    479    479    100    100
#   1339   1339    100    100
#     37     37    100    100
#     38     38    100    100
#    737    737    100    100
#    479    479    100    100
#    479    479    100    100
#   1339   1339    100    100
#     37     37    100    100
#     38     38    100    100
#    737    737    100    100
#    479    479    100    100
#    479    479    100    100
#   1339   1339    100    100
#     37     37    100    100
#     38     38    100    100
#    737    737    100    100
#    479    479    100    100
#    479    479    100    100
#   1339   1339    100    100
#     37     37    100    100
#     38     38    100    100
#    737    737    100    100
#    479    479    100    100
#    479    479    100    100
#   1339   1339    100    100
#     37     37    100    100
#     38     38    100    100
#    737    737    100    100
#    479    479    100    100
#    479    479    100    100
#   1339   1339    100    100
#     37     37    100    100
#     38     38    100    100
#    737    737    100    100
#    479    479    100    100
#    479    479    100    100
#   1339   1339    100    100
#     37     37    100    100
#     38     38    100    100
#    737    737    100    100
#    479    479    100    100
#    479    479    100    100
#   1339   1339    100    100
#     37     37    100    100
#     38     38    100    100
#    737    737    100    100
#    479    479    100    100
#    479    479    100    100
#   1339   1339    100    100
#     37     37    100    100
#     38     38    100    100
#    737    737    100    100
#    479    479    100    100
#    479    479    100    100
#   1339   1339    100    100
#     37     37    100    100
#     38     38    100    100
#    737    737    100    100
#    479    479    100    100
#    479    479    100    100
#   1339   1339    100    100
#     37     37    100    100
#     38     38    100    100
#    737    737    100    100
#    479    479    100    100
#    479    479    100    100
#   1339   1339    100    100
#     37     37    100    100
#     38     38    100    100
#    737    737    100    100
#    479    479    100    100
#    479    479    100    100
#   1339   1339    100    100
#     37     37    100    100
#     38     38    100    100
#    737    737    100    100
#    479    479    100    100
#    479    479    100    100
#   1339   1339    100    100
#     37     37    100    100
#     38     38    100    100
#    737    737    100    100
#    479    479    100    100
#    479    479    100    100
#   1339   1339    100    100
#     37     37    100    100
#     38     38    100    100
#    737    737    100    100
#    479    479    100    100
#    479    479    100    100
#   1339   1339    100    100
#     37     37    100    100
#     38     38    100    100
#    737    737    100    100
#    479    479    100    100
#    479    479    100    100
#   1339   1339    100    100
#     37     37    100    100
#     38     38    100    100
#    737    737    100    100
#    479    479    100    100
#    479    479    100    100
#   1339   1339    100    100
#     37     37    100    100
#     38     38    100    100
#    737    737    100    100
#    479    479    100    100
#    479    479    100    100
#   1339   1339    100    100
#     37     37    100    100
#     38     38    100    100
#    737    737    100    100
#    479    479    100    100
#    479    479    100    100
#   1339   1339    100    100
#     37     37    100    100
#     38     38    100    100
#    737    737    100    100
#    479    479    100    100
#    479    479    100    100
#   1339   1339    100    100
#     37     37    100    100
#     38     38    100    100
#    737    737    100    100
#    479    479    100    100
#    479    479    100    100
#   1339   1339    100    100
#     37     37    100    100
#     38     38    100    100
#    737    737    100    100
#    479    479    100    100
#    479    479    100    100
#   1339   1339    100    100
#     37     37    100    100
#     38     38    100    100
#    737    737    100    100
#    479    479    100    100
#    479    479    100    100
#   1339   1339    100    100
#     37     37    100    100
#     38     38    100    100
#    737    737    100    100
#    479    479    100    100
#    479    479    100    100
#   1339   1339    100    100
#     37     37    100    100
#     38     38    100    100
#    737    737    100    100
#    479    479    100    100
#    479    479    100    100
#   1339   1339    100    100
#     37     37    100    100
#     38     38    100    100
#    737    737    100    100
#    479    479    100    100
#    479    479    100    100
#   1339   1339    100    100
#     37     37    100    100
#     38     38    100    100
#    737    737    100    100
#    479    479    100    100
#    479    479    100    100
#   1339   1339    100    100
#     37     37    100    100
#     38     38    100    100
#    737    737    100    100
#    479    479    100    100
#    479    479    100    100
#   1339   1339    100    100
#     37     37    100    100
#     38     38    100    100
#    737    737    100    100
#    479    479    100    100
#    479    479    100    100
#   1339   1339    100    100
#     37     37    100    100
#     38     38    100    100
#    737    737    100    100
#    479    479    100    100
#    479    479    100    100
#   1339   1339    100    100
